Analytics Corner - Observable + DuckDB test
…
    DuckDB

    Author

             Ran Li 

    Published

      June 1, 2023

Going to try observable

Data Prep

# A tibble: 344 x 9
   rowid species island    bill_length_mm bill_dep~1 flipp~2 body_~3 sex    year
   <int> <chr>   <chr>              <dbl>      <dbl>   <int>   <int> <chr> <int>
 1     1 Adelie  Torgersen           39.1       18.7     181    3750 male   2007
 2     2 Adelie  Torgersen           39.5       17.4     186    3800 fema~  2007
 3     3 Adelie  Torgersen           40.3       18       195    3250 fema~  2007
 4     4 Adelie  Torgersen           NA         NA        NA      NA <NA>   2007
 5     5 Adelie  Torgersen           36.7       19.3     193    3450 fema~  2007
 6     6 Adelie  Torgersen           39.3       20.6     190    3650 male   2007
 7     7 Adelie  Torgersen           38.9       17.8     181    3625 fema~  2007
 8     8 Adelie  Torgersen           39.2       19.6     195    4675 male   2007
 9     9 Adelie  Torgersen           34.1       18.1     193    3475 <NA>   2007
10    10 Adelie  Torgersen           42         20.2     190    4250 <NA>   2007
# ... with 334 more rows, and abbreviated variable names 1: bill_depth_mm,
#   2: flipper_length_mm, 3: body_mass_g
# i Use `print(n = ...)` to see more rows
…
